{
  "article": {
    "id": "article",
    "type": "table",
    "fields": {
      "id": {
        "name": "id",
        "number": 1,
        "type": "integer",
        "required": true,
        "generated": true,
        "editable": true,
        "precision": 32,
        "sqlType": "integer"
      },
      "path": {
        "name": "path",
        "number": 2,
        "type": "string",
        "required": false,
        "generated": false,
        "editable": true,
        "maxLength": 96,
        "sqlType": "character varying(96)"
      },
      "type": {
        "name": "type",
        "number": 3,
        "type": "enum",
        "required": true,
        "generated": true,
        "editable": true,
        "items": [
          "cat",
          "page",
          "product",
          "ticket"
        ],
        "sqlType": "article_type"
      },
      "price": {
        "name": "price",
        "number": 4,
        "type": "integer",
        "required": false,
        "generated": false,
        "editable": true,
        "precision": 32,
        "sqlType": "integer"
      },
      "accrue": {
        "name": "accrue",
        "number": 5,
        "type": "float",
        "required": false,
        "generated": false,
        "editable": true,
        "precision": 24,
        "sqlType": "real"
      },
      "name": {
        "name": "name",
        "number": 6,
        "type": "string",
        "required": true,
        "generated": false,
        "editable": true,
        "maxLength": 96,
        "sqlType": "character varying(96)"
      },
      "short": {
        "name": "short",
        "number": 7,
        "type": "string",
        "required": false,
        "generated": false,
        "editable": true,
        "maxLength": 140,
        "sqlType": "character varying(140)"
      },
      "time": {
        "name": "time",
        "number": 8,
        "type": "time",
        "required": false,
        "generated": false,
        "editable": true,
        "sqlType": "timestamp without time zone"
      },
      "created": {
        "name": "created",
        "number": 9,
        "type": "time",
        "required": true,
        "generated": true,
        "editable": true,
        "sqlType": "timestamp without time zone"
      },
      "text": {
        "name": "text",
        "number": 10,
        "type": "string",
        "required": false,
        "generated": false,
        "editable": true,
        "maxLength": 48000,
        "sqlType": "character varying(48000)"
      },
      "image": {
        "name": "image",
        "number": 11,
        "type": "string",
        "required": false,
        "generated": false,
        "editable": true,
        "maxLength": 256,
        "sqlType": "character varying(256)"
      },
      "user": {
        "name": "user",
        "number": 12,
        "type": "integer",
        "required": false,
        "generated": false,
        "editable": true,
        "precision": 32,
        "sqlType": "integer",
        "reference": {
          "name": "article_user_fkey",
          "table": "user",
          "field": "id",
          "rules": {
            "update": "NO ACTION",
            "delete": "NO ACTION"
          }
        }
      }
    },
    "references": {
      "relation_from_fkey": {
        "name": "relation_from_fkey",
        "table": "relation",
        "field": "from"
      },
      "relation_to_fkey": {
        "name": "relation_to_fkey",
        "table": "relation",
        "field": "to"
      },
      "message_article_fkey": {
        "name": "message_article_fkey",
        "table": "message",
        "field": "article"
      },
      "item_article_fkey": {
        "name": "item_article_fkey",
        "table": "item",
        "field": "article"
      }
    }
  },
  "article_author": {
    "id": "article_author",
    "type": "view",
    "fields": {
      "id": {
        "name": "id",
        "number": 1,
        "type": "integer",
        "required": false,
        "generated": false,
        "editable": false,
        "precision": 32,
        "sqlType": "integer"
      },
      "path": {
        "name": "path",
        "number": 2,
        "type": "string",
        "required": false,
        "generated": false,
        "editable": false,
        "maxLength": 96,
        "sqlType": "character varying(96)"
      },
      "type": {
        "name": "type",
        "number": 3,
        "type": "enum",
        "required": false,
        "generated": false,
        "editable": false,
        "items": [
          "cat",
          "page",
          "product",
          "ticket"
        ],
        "sqlType": "article_type"
      },
      "price": {
        "name": "price",
        "number": 4,
        "type": "integer",
        "required": false,
        "generated": false,
        "editable": false,
        "precision": 32,
        "sqlType": "integer"
      },
      "accrue": {
        "name": "accrue",
        "number": 5,
        "type": "float",
        "required": false,
        "generated": false,
        "editable": false,
        "precision": 24,
        "sqlType": "real"
      },
      "name": {
        "name": "name",
        "number": 6,
        "type": "string",
        "required": false,
        "generated": false,
        "editable": false,
        "maxLength": 96,
        "sqlType": "character varying(96)"
      },
      "short": {
        "name": "short",
        "number": 7,
        "type": "string",
        "required": false,
        "generated": false,
        "editable": false,
        "maxLength": 140,
        "sqlType": "character varying(140)"
      },
      "time": {
        "name": "time",
        "number": 8,
        "type": "time",
        "required": false,
        "generated": false,
        "editable": false,
        "sqlType": "timestamp without time zone"
      },
      "created": {
        "name": "created",
        "number": 9,
        "type": "time",
        "required": false,
        "generated": false,
        "editable": false,
        "sqlType": "timestamp without time zone"
      },
      "text": {
        "name": "text",
        "number": 10,
        "type": "string",
        "required": false,
        "generated": false,
        "editable": false,
        "maxLength": 48000,
        "sqlType": "character varying(48000)"
      },
      "image": {
        "name": "image",
        "number": 11,
        "type": "string",
        "required": false,
        "generated": false,
        "editable": false,
        "maxLength": 256,
        "sqlType": "character varying(256)"
      },
      "user": {
        "name": "user",
        "number": 12,
        "type": "integer",
        "required": false,
        "generated": false,
        "editable": false,
        "precision": 32,
        "sqlType": "integer"
      },
      "nick": {
        "name": "nick",
        "number": 13,
        "type": "string",
        "required": false,
        "generated": false,
        "editable": false,
        "maxLength": 24,
        "sqlType": "character varying(24)"
      },
      "surname": {
        "name": "surname",
        "number": 14,
        "type": "string",
        "required": false,
        "generated": false,
        "editable": false,
        "maxLength": 48,
        "sqlType": "character varying(48)"
      },
      "forename": {
        "name": "forename",
        "number": 15,
        "type": "string",
        "required": false,
        "generated": false,
        "editable": false,
        "maxLength": 48,
        "sqlType": "character varying(48)"
      },
      "email": {
        "name": "email",
        "number": 16,
        "type": "string",
        "required": false,
        "generated": false,
        "editable": false,
        "maxLength": 48,
        "sqlType": "character varying(48)"
      },
      "skype": {
        "name": "skype",
        "number": 17,
        "type": "string",
        "required": false,
        "generated": false,
        "editable": false,
        "maxLength": 54,
        "sqlType": "character varying(54)"
      },
      "avatar": {
        "name": "avatar",
        "number": 18,
        "type": "string",
        "required": false,
        "generated": false,
        "editable": false,
        "maxLength": 192,
        "sqlType": "character varying(192)"
      },
      "admin": {
        "name": "admin",
        "number": 19,
        "type": "boolean",
        "required": false,
        "generated": false,
        "editable": false,
        "sqlType": "boolean"
      }
    }
  },
  "balance": {
    "id": "balance",
    "type": "view",
    "fields": {
      "id": {
        "name": "id",
        "number": 1,
        "type": "integer",
        "required": false,
        "generated": false,
        "editable": false,
        "precision": 32,
        "sqlType": "integer"
      },
      "balance": {
        "name": "balance",
        "number": 2,
        "type": "integer",
        "required": false,
        "generated": false,
        "editable": false,
        "precision": 32,
        "sqlType": "integer"
      }
    }
  },
  "buy_cart": {
    "id": "buy_cart",
    "type": "view",
    "fields": {
      "article": {
        "name": "article",
        "number": 1,
        "type": "integer",
        "required": false,
        "generated": false,
        "editable": false,
        "precision": 32,
        "sqlType": "integer"
      },
      "cart": {
        "name": "cart",
        "number": 2,
        "type": "integer",
        "required": false,
        "generated": false,
        "editable": false,
        "precision": 32,
        "sqlType": "integer"
      },
      "to": {
        "name": "to",
        "number": 3,
        "type": "integer",
        "required": false,
        "generated": false,
        "editable": false,
        "precision": 32,
        "sqlType": "integer"
      },
      "transfer": {
        "name": "transfer",
        "number": 4,
        "type": "integer",
        "required": false,
        "generated": false,
        "editable": false,
        "precision": 32,
        "sqlType": "integer"
      },
      "name": {
        "name": "name",
        "number": 5,
        "type": "string",
        "required": false,
        "generated": false,
        "editable": false,
        "maxLength": 96,
        "sqlType": "character varying(96)"
      },
      "amount": {
        "name": "amount",
        "number": 6,
        "type": "integer",
        "required": false,
        "generated": false,
        "editable": false,
        "precision": 32,
        "sqlType": "integer"
      },
      "type": {
        "name": "type",
        "number": 7,
        "type": "enum",
        "required": false,
        "generated": false,
        "editable": false,
        "items": [
          "internal",
          "payment",
          "withdraw",
          "accrue",
          "buy",
          "earn",
          "support",
          "write-off",
          "need-pro"
        ],
        "sqlType": "transfer_type"
      },
      "created": {
        "name": "created",
        "number": 8,
        "type": "time",
        "required": false,
        "generated": false,
        "editable": false,
        "sqlType": "timestamp without time zone"
      }
    }
  },
  "cart": {
    "id": "cart",
    "type": "table",
    "fields": {
      "id": {
        "name": "id",
        "number": 1,
        "type": "integer",
        "required": true,
        "generated": true,
        "editable": true,
        "precision": 32,
        "sqlType": "integer"
      },
      "user": {
        "name": "user",
        "number": 2,
        "type": "integer",
        "required": false,
        "generated": false,
        "editable": true,
        "precision": 32,
        "sqlType": "integer",
        "reference": {
          "name": "cart_user_fkey",
          "table": "user",
          "field": "id",
          "rules": {
            "update": "CASCADE",
            "delete": "CASCADE"
          }
        }
      },
      "transfer": {
        "name": "transfer",
        "number": 3,
        "type": "integer",
        "required": false,
        "generated": false,
        "editable": true,
        "precision": 32,
        "sqlType": "integer",
        "reference": {
          "name": "cart_transfer_fkey",
          "table": "transfer",
          "field": "id",
          "rules": {
            "update": "CASCADE",
            "delete": "CASCADE"
          }
        }
      },
      "about": {
        "name": "about",
        "number": 4,
        "type": "string",
        "required": false,
        "generated": false,
        "editable": true,
        "maxLength": 1024,
        "sqlType": "character varying(1024)"
      },
      "created": {
        "name": "created",
        "number": 5,
        "type": "time",
        "required": true,
        "generated": true,
        "editable": true,
        "sqlType": "timestamp without time zone"
      },
      "time": {
        "name": "time",
        "number": 6,
        "type": "time",
        "required": false,
        "generated": false,
        "editable": true,
        "sqlType": "timestamp without time zone"
      }
    },
    "references": {
      "item_cart_fkey": {
        "name": "item_cart_fkey",
        "table": "item",
        "field": "cart"
      }
    }
  },
  "cart_item": {
    "id": "cart_item",
    "type": "view",
    "fields": {
      "article": {
        "name": "article",
        "number": 1,
        "type": "integer",
        "required": false,
        "generated": false,
        "editable": false,
        "precision": 32,
        "sqlType": "integer"
      },
      "cart": {
        "name": "cart",
        "number": 2,
        "type": "integer",
        "required": false,
        "generated": false,
        "editable": false,
        "precision": 32,
        "sqlType": "integer"
      },
      "user": {
        "name": "user",
        "number": 3,
        "type": "integer",
        "required": false,
        "generated": false,
        "editable": false,
        "precision": 32,
        "sqlType": "integer"
      },
      "to": {
        "name": "to",
        "number": 4,
        "type": "integer",
        "required": false,
        "generated": false,
        "editable": false,
        "precision": 32,
        "sqlType": "integer"
      },
      "transfer": {
        "name": "transfer",
        "number": 5,
        "type": "integer",
        "required": false,
        "generated": false,
        "editable": false,
        "precision": 32,
        "sqlType": "integer"
      },
      "name": {
        "name": "name",
        "number": 6,
        "type": "string",
        "required": false,
        "generated": false,
        "editable": false,
        "maxLength": 96,
        "sqlType": "character varying(96)"
      },
      "amount": {
        "name": "amount",
        "number": 7,
        "type": "integer",
        "required": false,
        "generated": false,
        "editable": false,
        "precision": 16,
        "sqlType": "smallint"
      },
      "price": {
        "name": "price",
        "number": 8,
        "type": "integer",
        "required": false,
        "generated": false,
        "editable": false,
        "precision": 32,
        "sqlType": "integer"
      },
      "accrue": {
        "name": "accrue",
        "number": 9,
        "type": "integer",
        "required": false,
        "generated": false,
        "editable": false,
        "precision": 32,
        "sqlType": "integer"
      },
      "created": {
        "name": "created",
        "number": 10,
        "type": "time",
        "required": false,
        "generated": false,
        "editable": false,
        "sqlType": "timestamp without time zone"
      }
    }
  },
  "daemon": {
    "id": "daemon",
    "type": "table",
    "fields": {
      "id": {
        "name": "id",
        "number": 1,
        "type": "string",
        "required": true,
        "generated": false,
        "editable": true,
        "maxLength": 48,
        "sqlType": "character varying(48)"
      },
      "expires": {
        "name": "expires",
        "number": 2,
        "type": "time",
        "required": true,
        "generated": true,
        "editable": true,
        "sqlType": "timestamp without time zone"
      },
      "type": {
        "name": "type",
        "number": 3,
        "type": "enum",
        "required": false,
        "generated": false,
        "editable": true,
        "items": [
          "server",
          "browser",
          "app",
          "code",
          "password",
          "vkontakte",
          "facebook",
          "google"
        ],
        "sqlType": "token_type"
      },
      "script": {
        "name": "script",
        "number": 4,
        "type": "string",
        "required": true,
        "generated": false,
        "editable": true,
        "sqlType": "text"
      }
    }
  },
  "download": {
    "id": "download",
    "type": "table",
    "fields": {
      "id": {
        "name": "id",
        "number": 1,
        "type": "integer",
        "required": true,
        "generated": true,
        "editable": true,
        "precision": 64,
        "sqlType": "bigint"
      },
      "file": {
        "name": "file",
        "number": 2,
        "type": "string",
        "required": true,
        "generated": false,
        "editable": true,
        "maxLength": 64,
        "sqlType": "character varying(64)",
        "reference": {
          "name": "download_file_fkey",
          "table": "file",
          "field": "id",
          "rules": {
            "update": "CASCADE",
            "delete": "CASCADE"
          }
        }
      },
      "ip": {
        "name": "ip",
        "number": 3,
        "type": "inet",
        "required": false,
        "generated": false,
        "editable": true,
        "sqlType": "inet"
      },
      "agent": {
        "name": "agent",
        "number": 4,
        "type": "string",
        "required": false,
        "generated": false,
        "editable": true,
        "maxLength": 240,
        "sqlType": "character varying(240)"
      },
      "created": {
        "name": "created",
        "number": 5,
        "type": "time",
        "required": true,
        "generated": true,
        "editable": true,
        "sqlType": "timestamp without time zone"
      }
    }
  },
  "exchange": {
    "id": "exchange",
    "type": "table",
    "fields": {
      "from": {
        "name": "from",
        "number": 1,
        "type": "string",
        "required": true,
        "generated": false,
        "editable": true,
        "maxLength": 3,
        "sqlType": "character(3)"
      },
      "to": {
        "name": "to",
        "number": 2,
        "type": "string",
        "required": true,
        "generated": false,
        "editable": true,
        "maxLength": 3,
        "sqlType": "character(3)"
      },
      "rate": {
        "name": "rate",
        "number": 3,
        "type": "float",
        "required": true,
        "generated": false,
        "editable": true,
        "precision": 53,
        "sqlType": "double precision"
      },
      "time": {
        "name": "time",
        "number": 4,
        "type": "time",
        "required": true,
        "generated": true,
        "editable": true,
        "sqlType": "timestamp without time zone"
      }
    }
  },
  "file": {
    "id": "file",
    "type": "table",
    "fields": {
      "id": {
        "name": "id",
        "number": 1,
        "type": "string",
        "required": true,
        "generated": false,
        "editable": true,
        "maxLength": 64,
        "sqlType": "character varying(64)"
      },
      "name": {
        "name": "name",
        "number": 2,
        "type": "string",
        "required": false,
        "generated": false,
        "editable": true,
        "maxLength": 192,
        "sqlType": "character varying(192)"
      },
      "mime": {
        "name": "mime",
        "number": 3,
        "type": "string",
        "required": true,
        "generated": false,
        "editable": true,
        "maxLength": 192,
        "sqlType": "character varying(192)"
      },
      "size": {
        "name": "size",
        "number": 4,
        "type": "integer",
        "required": true,
        "generated": false,
        "editable": true,
        "precision": 32,
        "sqlType": "integer"
      },
      "user": {
        "name": "user",
        "number": 5,
        "type": "integer",
        "required": false,
        "generated": false,
        "editable": true,
        "precision": 32,
        "sqlType": "integer",
        "reference": {
          "name": "file_user_fkey",
          "table": "user",
          "field": "id",
          "rules": {
            "update": "CASCADE",
            "delete": "CASCADE"
          }
        }
      },
      "ip": {
        "name": "ip",
        "number": 6,
        "type": "inet",
        "required": false,
        "generated": false,
        "editable": true,
        "sqlType": "inet"
      },
      "cat": {
        "name": "cat",
        "number": 7,
        "type": "string",
        "required": false,
        "generated": false,
        "editable": true,
        "maxLength": 96,
        "sqlType": "character varying(96)"
      },
      "url": {
        "name": "url",
        "number": 8,
        "type": "string",
        "required": false,
        "generated": false,
        "editable": true,
        "maxLength": 240,
        "sqlType": "character varying(240)"
      },
      "created": {
        "name": "created",
        "number": 9,
        "type": "time",
        "required": true,
        "generated": true,
        "editable": true,
        "sqlType": "timestamp without time zone"
      },
      "time": {
        "name": "time",
        "number": 10,
        "type": "time",
        "required": false,
        "generated": false,
        "editable": true,
        "sqlType": "timestamp without time zone"
      }
    },
    "references": {
      "download_file_fkey": {
        "name": "download_file_fkey",
        "table": "download",
        "field": "file"
      }
    }
  },
  "informer": {
    "id": "informer",
    "type": "view",
    "fields": {
      "id": {
        "name": "id",
        "number": 1,
        "type": "integer",
        "required": false,
        "generated": false,
        "editable": false,
        "precision": 32,
        "sqlType": "integer"
      },
      "balance": {
        "name": "balance",
        "number": 2,
        "type": "integer",
        "required": false,
        "generated": false,
        "editable": false,
        "precision": 32,
        "sqlType": "integer"
      },
      "payment": {
        "name": "payment",
        "number": 3,
        "type": "integer",
        "required": false,
        "generated": false,
        "editable": false,
        "precision": 64,
        "sqlType": "bigint"
      },
      "withdraw": {
        "name": "withdraw",
        "number": 4,
        "type": "integer",
        "required": false,
        "generated": false,
        "editable": false,
        "precision": 64,
        "sqlType": "bigint"
      },
      "accrue": {
        "name": "accrue",
        "number": 5,
        "type": "integer",
        "required": false,
        "generated": false,
        "editable": false,
        "precision": 64,
        "sqlType": "bigint"
      },
      "visit": {
        "name": "visit",
        "number": 6,
        "type": "integer",
        "required": false,
        "generated": false,
        "editable": false,
        "precision": 64,
        "sqlType": "bigint"
      },
      "nick": {
        "name": "nick",
        "number": 7,
        "type": "string",
        "required": false,
        "generated": false,
        "editable": false,
        "maxLength": 24,
        "sqlType": "character varying(24)"
      },
      "type": {
        "name": "type",
        "number": 8,
        "type": "enum",
        "required": false,
        "generated": false,
        "editable": false,
        "items": [
          "new",
          "native",
          "leader"
        ],
        "sqlType": "user_type"
      },
      "surname": {
        "name": "surname",
        "number": 9,
        "type": "string",
        "required": false,
        "generated": false,
        "editable": false,
        "maxLength": 48,
        "sqlType": "character varying(48)"
      },
      "forename": {
        "name": "forename",
        "number": 10,
        "type": "string",
        "required": false,
        "generated": false,
        "editable": false,
        "maxLength": 48,
        "sqlType": "character varying(48)"
      },
      "skype": {
        "name": "skype",
        "number": 11,
        "type": "string",
        "required": false,
        "generated": false,
        "editable": false,
        "maxLength": 54,
        "sqlType": "character varying(54)"
      },
      "avatar": {
        "name": "avatar",
        "number": 12,
        "type": "string",
        "required": false,
        "generated": false,
        "editable": false,
        "maxLength": 192,
        "sqlType": "character varying(192)"
      },
      "leader": {
        "name": "leader",
        "number": 13,
        "type": "boolean",
        "required": false,
        "generated": false,
        "editable": false,
        "sqlType": "boolean"
      },
      "email": {
        "name": "email",
        "number": 14,
        "type": "string",
        "required": false,
        "generated": false,
        "editable": false,
        "maxLength": 48,
        "sqlType": "character varying(48)"
      },
      "parent": {
        "name": "parent",
        "number": 15,
        "type": "object",
        "required": false,
        "generated": false,
        "editable": false,
        "sqlType": "json"
      }
    }
  },
  "item": {
    "id": "item",
    "type": "table",
    "fields": {
      "article": {
        "name": "article",
        "number": 1,
        "type": "integer",
        "required": false,
        "generated": false,
        "editable": true,
        "precision": 32,
        "sqlType": "integer",
        "reference": {
          "name": "item_article_fkey",
          "table": "article",
          "field": "id",
          "rules": {
            "update": "CASCADE",
            "delete": "CASCADE"
          }
        }
      },
      "cart": {
        "name": "cart",
        "number": 2,
        "type": "integer",
        "required": false,
        "generated": false,
        "editable": true,
        "precision": 32,
        "sqlType": "integer",
        "reference": {
          "name": "item_cart_fkey",
          "table": "cart",
          "field": "id",
          "rules": {
            "update": "CASCADE",
            "delete": "CASCADE"
          }
        }
      },
      "price": {
        "name": "price",
        "number": 3,
        "type": "integer",
        "required": true,
        "generated": false,
        "editable": true,
        "precision": 32,
        "sqlType": "integer"
      },
      "amount": {
        "name": "amount",
        "number": 4,
        "type": "integer",
        "required": true,
        "generated": true,
        "editable": true,
        "precision": 16,
        "sqlType": "smallint"
      },
      "created": {
        "name": "created",
        "number": 5,
        "type": "time",
        "required": true,
        "generated": true,
        "editable": true,
        "sqlType": "timestamp without time zone"
      },
      "time": {
        "name": "time",
        "number": 6,
        "type": "time",
        "required": false,
        "generated": false,
        "editable": true,
        "sqlType": "timestamp without time zone"
      }
    }
  },
  "log": {
    "id": "log",
    "type": "table",
    "fields": {
      "id": {
        "name": "id",
        "number": 1,
        "type": "integer",
        "required": true,
        "generated": false,
        "editable": true,
        "precision": 64,
        "sqlType": "bigint"
      },
      "entity": {
        "name": "entity",
        "number": 2,
        "type": "string",
        "required": true,
        "generated": false,
        "editable": true,
        "maxLength": 16,
        "sqlType": "character varying(16)"
      },
      "action": {
        "name": "action",
        "number": 3,
        "type": "string",
        "required": true,
        "generated": false,
        "editable": true,
        "maxLength": 32,
        "sqlType": "character varying(32)"
      },
      "ip": {
        "name": "ip",
        "number": 4,
        "type": "inet",
        "required": false,
        "generated": false,
        "editable": true,
        "sqlType": "inet"
      },
      "user": {
        "name": "user",
        "number": 5,
        "type": "integer",
        "required": false,
        "generated": false,
        "editable": true,
        "precision": 32,
        "sqlType": "integer",
        "reference": {
          "name": "log_user_fkey",
          "table": "user",
          "field": "id",
          "rules": {
            "update": "CASCADE",
            "delete": "CASCADE"
          }
        }
      },
      "data": {
        "name": "data",
        "number": 6,
        "type": "object",
        "required": false,
        "generated": false,
        "editable": true,
        "sqlType": "json"
      }
    }
  },
  "matrix": {
    "id": "matrix",
    "type": "view",
    "fields": {
      "root": {
        "name": "root",
        "number": 1,
        "type": "integer",
        "required": false,
        "generated": false,
        "editable": false,
        "precision": 32,
        "sqlType": "integer"
      },
      "n": {
        "name": "n",
        "number": 2,
        "type": "integer",
        "required": false,
        "generated": false,
        "editable": false,
        "precision": 32,
        "sqlType": "integer"
      },
      "level": {
        "name": "level",
        "number": 3,
        "type": "float",
        "required": false,
        "generated": false,
        "editable": false,
        "sqlType": "numeric"
      },
      "id": {
        "name": "id",
        "number": 4,
        "type": "integer",
        "required": false,
        "generated": false,
        "editable": false,
        "precision": 32,
        "sqlType": "integer"
      },
      "program": {
        "name": "program",
        "number": 5,
        "type": "integer",
        "required": false,
        "generated": false,
        "editable": false,
        "precision": 16,
        "sqlType": "smallint"
      },
      "parent": {
        "name": "parent",
        "number": 6,
        "type": "integer",
        "required": false,
        "generated": false,
        "editable": false,
        "precision": 32,
        "sqlType": "integer"
      },
      "size": {
        "name": "size",
        "number": 7,
        "type": "integer",
        "required": false,
        "generated": false,
        "editable": false,
        "precision": 16,
        "sqlType": "smallint"
      },
      "user": {
        "name": "user",
        "number": 8,
        "type": "integer",
        "required": false,
        "generated": false,
        "editable": false,
        "precision": 32,
        "sqlType": "integer"
      },
      "full": {
        "name": "full",
        "number": 9,
        "type": "boolean",
        "required": false,
        "generated": false,
        "editable": false,
        "sqlType": "boolean"
      }
    }
  },
  "message": {
    "id": "message",
    "type": "table",
    "fields": {
      "id": {
        "name": "id",
        "number": 1,
        "type": "integer",
        "required": true,
        "generated": true,
        "editable": true,
        "precision": 32,
        "sqlType": "integer"
      },
      "user": {
        "name": "user",
        "number": 2,
        "type": "integer",
        "required": false,
        "generated": false,
        "editable": true,
        "precision": 32,
        "sqlType": "integer",
        "reference": {
          "name": "message_user_fkey",
          "table": "user",
          "field": "id",
          "rules": {
            "update": "CASCADE",
            "delete": "CASCADE"
          }
        }
      },
      "article": {
        "name": "article",
        "number": 3,
        "type": "integer",
        "required": false,
        "generated": false,
        "editable": true,
        "precision": 32,
        "sqlType": "integer",
        "reference": {
          "name": "message_article_fkey",
          "table": "article",
          "field": "id",
          "rules": {
            "update": "CASCADE",
            "delete": "CASCADE"
          }
        }
      },
      "parent": {
        "name": "parent",
        "number": 4,
        "type": "integer",
        "required": false,
        "generated": false,
        "editable": true,
        "precision": 32,
        "sqlType": "integer",
        "reference": {
          "name": "message_parent_fkey",
          "table": "message",
          "field": "id",
          "rules": {
            "update": "CASCADE",
            "delete": "CASCADE"
          }
        }
      },
      "created": {
        "name": "created",
        "number": 5,
        "type": "time",
        "required": true,
        "generated": true,
        "editable": true,
        "sqlType": "timestamp without time zone"
      },
      "text": {
        "name": "text",
        "number": 6,
        "type": "string",
        "required": false,
        "generated": false,
        "editable": true,
        "maxLength": 4096,
        "sqlType": "character varying(4096)"
      }
    },
    "references": {
      "message_parent_fkey": {
        "name": "message_parent_fkey",
        "table": "message",
        "field": "parent"
      }
    }
  },
  "message_user": {
    "id": "message_user",
    "type": "view",
    "fields": {
      "id": {
        "name": "id",
        "number": 1,
        "type": "integer",
        "required": false,
        "generated": false,
        "editable": false,
        "precision": 32,
        "sqlType": "integer"
      },
      "article": {
        "name": "article",
        "number": 2,
        "type": "integer",
        "required": false,
        "generated": false,
        "editable": false,
        "precision": 32,
        "sqlType": "integer"
      },
      "parent": {
        "name": "parent",
        "number": 3,
        "type": "integer",
        "required": false,
        "generated": false,
        "editable": false,
        "precision": 32,
        "sqlType": "integer"
      },
      "created": {
        "name": "created",
        "number": 4,
        "type": "time",
        "required": false,
        "generated": false,
        "editable": false,
        "sqlType": "timestamp without time zone"
      },
      "text": {
        "name": "text",
        "number": 5,
        "type": "string",
        "required": false,
        "generated": false,
        "editable": false,
        "maxLength": 4096,
        "sqlType": "character varying(4096)"
      },
      "user": {
        "name": "user",
        "number": 6,
        "type": "object",
        "required": false,
        "generated": false,
        "editable": false,
        "sqlType": "json"
      }
    }
  },
  "node": {
    "id": "node",
    "type": "table",
    "fields": {
      "id": {
        "name": "id",
        "number": 1,
        "type": "integer",
        "required": true,
        "generated": true,
        "editable": true,
        "precision": 32,
        "sqlType": "integer"
      },
      "program": {
        "name": "program",
        "number": 2,
        "type": "integer",
        "required": false,
        "generated": false,
        "editable": true,
        "precision": 16,
        "sqlType": "smallint",
        "reference": {
          "name": "node_program_fkey",
          "table": "program",
          "field": "id",
          "rules": {
            "update": "CASCADE",
            "delete": "CASCADE"
          }
        }
      },
      "parent": {
        "name": "parent",
        "number": 3,
        "type": "integer",
        "required": false,
        "generated": false,
        "editable": true,
        "precision": 32,
        "sqlType": "integer",
        "reference": {
          "name": "node_parent_fkey",
          "table": "node",
          "field": "id",
          "rules": {
            "update": "NO ACTION",
            "delete": "NO ACTION"
          }
        }
      },
      "user": {
        "name": "user",
        "number": 4,
        "type": "integer",
        "required": true,
        "generated": false,
        "editable": true,
        "precision": 32,
        "sqlType": "integer",
        "reference": {
          "name": "node_user_fkey",
          "table": "user",
          "field": "id",
          "rules": {
            "update": "NO ACTION",
            "delete": "NO ACTION"
          }
        }
      },
      "active": {
        "name": "active",
        "number": 5,
        "type": "boolean",
        "required": true,
        "generated": true,
        "editable": true,
        "sqlType": "boolean"
      },
      "created": {
        "name": "created",
        "number": 6,
        "type": "time",
        "required": true,
        "generated": true,
        "editable": true,
        "sqlType": "timestamp without time zone"
      },
      "time": {
        "name": "time",
        "number": 7,
        "type": "time",
        "required": false,
        "generated": false,
        "editable": true,
        "sqlType": "timestamp without time zone"
      }
    },
    "references": {
      "node_parent_fkey": {
        "name": "node_parent_fkey",
        "table": "node",
        "field": "parent"
      }
    }
  },
  "open_matrix": {
    "id": "open_matrix",
    "type": "view",
    "fields": {
      "id": {
        "name": "id",
        "number": 1,
        "type": "integer",
        "required": false,
        "generated": false,
        "editable": false,
        "precision": 32,
        "sqlType": "integer"
      },
      "program": {
        "name": "program",
        "number": 2,
        "type": "integer",
        "required": false,
        "generated": false,
        "editable": false,
        "precision": 16,
        "sqlType": "smallint"
      }
    }
  },
  "program": {
    "id": "program",
    "type": "table",
    "fields": {
      "id": {
        "name": "id",
        "number": 1,
        "type": "integer",
        "required": true,
        "generated": false,
        "editable": true,
        "precision": 16,
        "sqlType": "smallint"
      },
      "size": {
        "name": "size",
        "number": 2,
        "type": "integer",
        "required": true,
        "generated": false,
        "editable": true,
        "precision": 16,
        "sqlType": "smallint"
      },
      "price": {
        "name": "price",
        "number": 3,
        "type": "integer",
        "required": true,
        "generated": false,
        "editable": true,
        "precision": 32,
        "sqlType": "integer"
      },
      "income": {
        "name": "income",
        "number": 4,
        "type": "integer",
        "required": true,
        "generated": false,
        "editable": true,
        "precision": 32,
        "sqlType": "integer"
      }
    },
    "references": {
      "node_program_fkey": {
        "name": "node_program_fkey",
        "table": "node",
        "field": "program"
      }
    }
  },
  "referral": {
    "id": "referral",
    "type": "view",
    "fields": {
      "id": {
        "name": "id",
        "number": 1,
        "type": "integer",
        "required": false,
        "generated": false,
        "editable": false,
        "precision": 32,
        "sqlType": "integer"
      },
      "nick": {
        "name": "nick",
        "number": 2,
        "type": "string",
        "required": false,
        "generated": false,
        "editable": false,
        "maxLength": 24,
        "sqlType": "character varying(24)"
      },
      "parent": {
        "name": "parent",
        "number": 3,
        "type": "integer",
        "required": false,
        "generated": false,
        "editable": false,
        "precision": 32,
        "sqlType": "integer"
      },
      "email": {
        "name": "email",
        "number": 4,
        "type": "string",
        "required": false,
        "generated": false,
        "editable": false,
        "maxLength": 48,
        "sqlType": "character varying(48)"
      },
      "root": {
        "name": "root",
        "number": 5,
        "type": "integer",
        "required": false,
        "generated": false,
        "editable": false,
        "precision": 32,
        "sqlType": "integer"
      },
      "level": {
        "name": "level",
        "number": 6,
        "type": "integer",
        "required": false,
        "generated": false,
        "editable": false,
        "precision": 32,
        "sqlType": "integer"
      },
      "forename": {
        "name": "forename",
        "number": 7,
        "type": "string",
        "required": false,
        "generated": false,
        "editable": false,
        "maxLength": 48,
        "sqlType": "character varying(48)"
      },
      "surname": {
        "name": "surname",
        "number": 8,
        "type": "string",
        "required": false,
        "generated": false,
        "editable": false,
        "maxLength": 48,
        "sqlType": "character varying(48)"
      },
      "skype": {
        "name": "skype",
        "number": 9,
        "type": "string",
        "required": false,
        "generated": false,
        "editable": false,
        "maxLength": 54,
        "sqlType": "character varying(54)"
      },
      "mlbot": {
        "name": "mlbot",
        "number": 10,
        "type": "time",
        "required": false,
        "generated": false,
        "editable": false,
        "sqlType": "timestamp without time zone"
      }
    }
  },
  "relation": {
    "id": "relation",
    "type": "table",
    "fields": {
      "from": {
        "name": "from",
        "number": 1,
        "type": "integer",
        "required": true,
        "generated": false,
        "editable": true,
        "precision": 32,
        "sqlType": "integer",
        "reference": {
          "name": "relation_from_fkey",
          "table": "article",
          "field": "id",
          "rules": {
            "update": "CASCADE",
            "delete": "CASCADE"
          }
        }
      },
      "to": {
        "name": "to",
        "number": 2,
        "type": "integer",
        "required": true,
        "generated": false,
        "editable": true,
        "precision": 32,
        "sqlType": "integer",
        "reference": {
          "name": "relation_to_fkey",
          "table": "article",
          "field": "id",
          "rules": {
            "update": "CASCADE",
            "delete": "CASCADE"
          }
        }
      }
    }
  },
  "remuneration": {
    "id": "remuneration",
    "type": "view",
    "fields": {
      "id": {
        "name": "id",
        "number": 1,
        "type": "integer",
        "required": false,
        "generated": false,
        "editable": false,
        "precision": 32,
        "sqlType": "integer"
      },
      "level": {
        "name": "level",
        "number": 2,
        "type": "integer",
        "required": false,
        "generated": false,
        "editable": false,
        "precision": 16,
        "sqlType": "smallint"
      },
      "income": {
        "name": "income",
        "number": 3,
        "type": "integer",
        "required": false,
        "generated": false,
        "editable": false,
        "precision": 32,
        "sqlType": "integer"
      },
      "root": {
        "name": "root",
        "number": 4,
        "type": "integer",
        "required": false,
        "generated": false,
        "editable": false,
        "precision": 32,
        "sqlType": "integer"
      }
    }
  },
  "report": {
    "id": "report",
    "type": "table",
    "fields": {
      "id": {
        "name": "id",
        "number": 1,
        "type": "integer",
        "required": true,
        "generated": true,
        "editable": true,
        "precision": 64,
        "sqlType": "bigint"
      },
      "token": {
        "name": "token",
        "number": 2,
        "type": "string",
        "required": false,
        "generated": false,
        "editable": true,
        "maxLength": 240,
        "sqlType": "character varying(240)"
      },
      "url": {
        "name": "url",
        "number": 3,
        "type": "string",
        "required": false,
        "generated": false,
        "editable": true,
        "maxLength": 240,
        "sqlType": "character varying(240)"
      },
      "name": {
        "name": "name",
        "number": 4,
        "type": "string",
        "required": false,
        "generated": false,
        "editable": true,
        "maxLength": 240,
        "sqlType": "character varying(240)"
      },
      "message": {
        "name": "message",
        "number": 5,
        "type": "string",
        "required": false,
        "generated": false,
        "editable": true,
        "sqlType": "text"
      },
      "stack": {
        "name": "stack",
        "number": 6,
        "type": "string",
        "required": false,
        "generated": false,
        "editable": true,
        "sqlType": "text"
      },
      "created": {
        "name": "created",
        "number": 7,
        "type": "time",
        "required": true,
        "generated": true,
        "editable": true,
        "sqlType": "timestamp without time zone"
      }
    }
  },
  "request": {
    "id": "request",
    "type": "table",
    "fields": {
      "id": {
        "name": "id",
        "number": 1,
        "type": "integer",
        "required": true,
        "generated": true,
        "editable": true,
        "precision": 64,
        "sqlType": "bigint"
      },
      "time": {
        "name": "time",
        "number": 2,
        "type": "time",
        "required": true,
        "generated": true,
        "editable": true,
        "sqlType": "timestamp without time zone"
      },
      "ip": {
        "name": "ip",
        "number": 3,
        "type": "inet",
        "required": false,
        "generated": false,
        "editable": true,
        "sqlType": "inet"
      },
      "url": {
        "name": "url",
        "number": 4,
        "type": "string",
        "required": true,
        "generated": false,
        "editable": true,
        "maxLength": 4096,
        "sqlType": "character varying(4096)"
      },
      "method": {
        "name": "method",
        "number": 5,
        "type": "enum",
        "required": true,
        "generated": false,
        "editable": true,
        "items": [
          "OPTIONS",
          "GET",
          "HEAD",
          "POST",
          "PUT",
          "PATCH",
          "DELETE",
          "TRACE",
          "CONNECT"
        ],
        "sqlType": "request_method"
      },
      "type": {
        "name": "type",
        "number": 6,
        "type": "string",
        "required": false,
        "generated": false,
        "editable": true,
        "maxLength": 64,
        "sqlType": "character varying(64)"
      },
      "agent": {
        "name": "agent",
        "number": 7,
        "type": "string",
        "required": false,
        "generated": false,
        "editable": true,
        "maxLength": 512,
        "sqlType": "character varying(512)"
      },
      "data": {
        "name": "data",
        "number": 8,
        "type": "string",
        "required": false,
        "generated": false,
        "editable": true,
        "sqlType": "text"
      }
    }
  },
  "shop_level": {
    "id": "shop_level",
    "type": "table",
    "fields": {
      "id": {
        "name": "id",
        "number": 1,
        "type": "integer",
        "required": true,
        "generated": false,
        "editable": true,
        "precision": 16,
        "sqlType": "smallint"
      },
      "income": {
        "name": "income",
        "number": 2,
        "type": "integer",
        "required": true,
        "generated": false,
        "editable": true,
        "precision": 32,
        "sqlType": "integer"
      }
    }
  },
  "skype": {
    "id": "skype",
    "type": "table",
    "fields": {
      "id": {
        "name": "id",
        "number": 1,
        "type": "integer",
        "required": true,
        "generated": true,
        "editable": true,
        "precision": 32,
        "sqlType": "integer"
      },
      "owner": {
        "name": "owner",
        "number": 2,
        "type": "integer",
        "required": true,
        "generated": false,
        "editable": true,
        "precision": 32,
        "sqlType": "integer",
        "reference": {
          "name": "skype_owner_fkey",
          "table": "user",
          "field": "id",
          "rules": {
            "update": "CASCADE",
            "delete": "CASCADE"
          }
        }
      },
      "login": {
        "name": "login",
        "number": 3,
        "type": "string",
        "required": true,
        "generated": false,
        "editable": true,
        "maxLength": 64,
        "sqlType": "character varying(64)"
      },
      "password": {
        "name": "password",
        "number": 4,
        "type": "string",
        "required": true,
        "generated": false,
        "editable": true,
        "maxLength": 64,
        "sqlType": "character varying(64)"
      },
      "spend": {
        "name": "spend",
        "number": 5,
        "type": "integer",
        "required": false,
        "generated": false,
        "editable": true,
        "precision": 32,
        "sqlType": "integer"
      },
      "size": {
        "name": "size",
        "number": 6,
        "type": "integer",
        "required": false,
        "generated": false,
        "editable": true,
        "precision": 32,
        "sqlType": "integer"
      }
    }
  },
  "social": {
    "id": "social",
    "type": "table",
    "fields": {
      "id": {
        "name": "id",
        "number": 1,
        "type": "integer",
        "required": true,
        "generated": true,
        "editable": true,
        "precision": 64,
        "sqlType": "bigint"
      },
      "type": {
        "name": "type",
        "number": 2,
        "type": "enum",
        "required": true,
        "generated": false,
        "editable": true,
        "items": [
          "server",
          "browser",
          "app",
          "code",
          "password",
          "vkontakte",
          "facebook",
          "google"
        ],
        "sqlType": "token_type"
      },
      "created": {
        "name": "created",
        "number": 3,
        "type": "time",
        "required": true,
        "generated": true,
        "editable": true,
        "sqlType": "timestamp without time zone"
      },
      "data": {
        "name": "data",
        "number": 4,
        "type": "object",
        "required": true,
        "generated": false,
        "editable": true,
        "sqlType": "json"
      }
    }
  },
  "sponsor": {
    "id": "sponsor",
    "type": "view",
    "fields": {
      "id": {
        "name": "id",
        "number": 1,
        "type": "integer",
        "required": false,
        "generated": false,
        "editable": false,
        "precision": 32,
        "sqlType": "integer"
      },
      "nick": {
        "name": "nick",
        "number": 2,
        "type": "string",
        "required": false,
        "generated": false,
        "editable": false,
        "maxLength": 24,
        "sqlType": "character varying(24)"
      },
      "parent": {
        "name": "parent",
        "number": 3,
        "type": "integer",
        "required": false,
        "generated": false,
        "editable": false,
        "precision": 32,
        "sqlType": "integer"
      },
      "root": {
        "name": "root",
        "number": 4,
        "type": "integer",
        "required": false,
        "generated": false,
        "editable": false,
        "precision": 32,
        "sqlType": "integer"
      },
      "level": {
        "name": "level",
        "number": 5,
        "type": "integer",
        "required": false,
        "generated": false,
        "editable": false,
        "precision": 32,
        "sqlType": "integer"
      }
    }
  },
  "sponsor_node": {
    "id": "sponsor_node",
    "type": "view",
    "fields": {
      "id": {
        "name": "id",
        "number": 1,
        "type": "integer",
        "required": false,
        "generated": false,
        "editable": false,
        "precision": 32,
        "sqlType": "integer"
      },
      "nick": {
        "name": "nick",
        "number": 2,
        "type": "string",
        "required": false,
        "generated": false,
        "editable": false,
        "maxLength": 24,
        "sqlType": "character varying(24)"
      },
      "parent": {
        "name": "parent",
        "number": 3,
        "type": "integer",
        "required": false,
        "generated": false,
        "editable": false,
        "precision": 32,
        "sqlType": "integer"
      },
      "root": {
        "name": "root",
        "number": 4,
        "type": "integer",
        "required": false,
        "generated": false,
        "editable": false,
        "precision": 32,
        "sqlType": "integer"
      },
      "level": {
        "name": "level",
        "number": 5,
        "type": "integer",
        "required": false,
        "generated": false,
        "editable": false,
        "precision": 32,
        "sqlType": "integer"
      },
      "node": {
        "name": "node",
        "number": 6,
        "type": "integer",
        "required": false,
        "generated": false,
        "editable": false,
        "precision": 32,
        "sqlType": "integer"
      },
      "program": {
        "name": "program",
        "number": 7,
        "type": "integer",
        "required": false,
        "generated": false,
        "editable": false,
        "precision": 16,
        "sqlType": "smallint"
      }
    }
  },
  "statistics": {
    "id": "statistics",
    "type": "view",
    "fields": {
      "payment": {
        "name": "payment",
        "number": 1,
        "type": "integer",
        "required": false,
        "generated": false,
        "editable": false,
        "precision": 64,
        "sqlType": "bigint"
      },
      "pending": {
        "name": "pending",
        "number": 2,
        "type": "integer",
        "required": false,
        "generated": false,
        "editable": false,
        "precision": 64,
        "sqlType": "bigint"
      },
      "withdraw": {
        "name": "withdraw",
        "number": 3,
        "type": "integer",
        "required": false,
        "generated": false,
        "editable": false,
        "precision": 64,
        "sqlType": "bigint"
      },
      "accrue": {
        "name": "accrue",
        "number": 4,
        "type": "integer",
        "required": false,
        "generated": false,
        "editable": false,
        "precision": 64,
        "sqlType": "bigint"
      },
      "buy": {
        "name": "buy",
        "number": 5,
        "type": "integer",
        "required": false,
        "generated": false,
        "editable": false,
        "precision": 64,
        "sqlType": "bigint"
      },
      "users": {
        "name": "users",
        "number": 6,
        "type": "integer",
        "required": false,
        "generated": false,
        "editable": false,
        "precision": 64,
        "sqlType": "bigint"
      },
      "users_day": {
        "name": "users_day",
        "number": 7,
        "type": "integer",
        "required": false,
        "generated": false,
        "editable": false,
        "precision": 64,
        "sqlType": "bigint"
      },
      "visitors": {
        "name": "visitors",
        "number": 8,
        "type": "integer",
        "required": false,
        "generated": false,
        "editable": false,
        "precision": 64,
        "sqlType": "bigint"
      },
      "visitors_day": {
        "name": "visitors_day",
        "number": 9,
        "type": "integer",
        "required": false,
        "generated": false,
        "editable": false,
        "precision": 64,
        "sqlType": "bigint"
      },
      "new_visitors_day": {
        "name": "new_visitors_day",
        "number": 10,
        "type": "integer",
        "required": false,
        "generated": false,
        "editable": false,
        "precision": 64,
        "sqlType": "bigint"
      },
      "activities_day": {
        "name": "activities_day",
        "number": 11,
        "type": "integer",
        "required": false,
        "generated": false,
        "editable": false,
        "precision": 64,
        "sqlType": "bigint"
      },
      "referral_day": {
        "name": "referral_day",
        "number": 12,
        "type": "integer",
        "required": false,
        "generated": false,
        "editable": false,
        "precision": 64,
        "sqlType": "bigint"
      }
    }
  },
  "token": {
    "id": "token",
    "type": "table",
    "fields": {
      "id": {
        "name": "id",
        "number": 1,
        "type": "string",
        "required": true,
        "generated": false,
        "editable": true,
        "maxLength": 240,
        "sqlType": "character varying(240)"
      },
      "user": {
        "name": "user",
        "number": 2,
        "type": "integer",
        "required": false,
        "generated": false,
        "editable": true,
        "precision": 32,
        "sqlType": "integer",
        "reference": {
          "name": "token_user_fkey",
          "table": "user",
          "field": "id",
          "rules": {
            "update": "CASCADE",
            "delete": "CASCADE"
          }
        }
      },
      "type": {
        "name": "type",
        "number": 3,
        "type": "enum",
        "required": true,
        "generated": true,
        "editable": true,
        "items": [
          "server",
          "browser",
          "app",
          "code",
          "password",
          "vkontakte",
          "facebook",
          "google"
        ],
        "sqlType": "token_type"
      },
      "created": {
        "name": "created",
        "number": 4,
        "type": "time",
        "required": true,
        "generated": true,
        "editable": true,
        "sqlType": "timestamp without time zone"
      },
      "time": {
        "name": "time",
        "number": 5,
        "type": "time",
        "required": false,
        "generated": false,
        "editable": true,
        "sqlType": "timestamp without time zone"
      },
      "handshake": {
        "name": "handshake",
        "number": 6,
        "type": "time",
        "required": false,
        "generated": false,
        "editable": true,
        "sqlType": "timestamp without time zone"
      },
      "expires": {
        "name": "expires",
        "number": 7,
        "type": "time",
        "required": true,
        "generated": false,
        "editable": true,
        "sqlType": "timestamp without time zone"
      },
      "ip": {
        "name": "ip",
        "number": 8,
        "type": "inet",
        "required": false,
        "generated": false,
        "editable": true,
        "sqlType": "inet"
      },
      "hard": {
        "name": "hard",
        "number": 9,
        "type": "object",
        "required": false,
        "generated": false,
        "editable": true,
        "sqlType": "json"
      },
      "soft": {
        "name": "soft",
        "number": 10,
        "type": "object",
        "required": false,
        "generated": false,
        "editable": true,
        "sqlType": "json"
      },
      "name": {
        "name": "name",
        "number": 11,
        "type": "string",
        "required": false,
        "generated": false,
        "editable": true,
        "maxLength": 240,
        "sqlType": "character varying(240)"
      }
    }
  },
  "token_user": {
    "id": "token_user",
    "type": "view",
    "fields": {
      "created": {
        "name": "created",
        "number": 1,
        "type": "time",
        "required": false,
        "generated": false,
        "editable": false,
        "sqlType": "timestamp without time zone"
      },
      "handshake": {
        "name": "handshake",
        "number": 2,
        "type": "time",
        "required": false,
        "generated": false,
        "editable": false,
        "sqlType": "timestamp without time zone"
      },
      "hard": {
        "name": "hard",
        "number": 3,
        "type": "object",
        "required": false,
        "generated": false,
        "editable": false,
        "sqlType": "json"
      },
      "id": {
        "name": "id",
        "number": 4,
        "type": "string",
        "required": false,
        "generated": false,
        "editable": false,
        "maxLength": 240,
        "sqlType": "character varying(240)"
      },
      "ip": {
        "name": "ip",
        "number": 5,
        "type": "inet",
        "required": false,
        "generated": false,
        "editable": false,
        "sqlType": "inet"
      },
      "name": {
        "name": "name",
        "number": 6,
        "type": "string",
        "required": false,
        "generated": false,
        "editable": false,
        "maxLength": 240,
        "sqlType": "character varying(240)"
      },
      "time": {
        "name": "time",
        "number": 7,
        "type": "time",
        "required": false,
        "generated": false,
        "editable": false,
        "sqlType": "timestamp without time zone"
      },
      "type": {
        "name": "type",
        "number": 8,
        "type": "enum",
        "required": false,
        "generated": false,
        "editable": false,
        "items": [
          "server",
          "browser",
          "app",
          "code",
          "password",
          "vkontakte",
          "facebook",
          "google"
        ],
        "sqlType": "token_type"
      },
      "email": {
        "name": "email",
        "number": 9,
        "type": "string",
        "required": false,
        "generated": false,
        "editable": false,
        "maxLength": 48,
        "sqlType": "character varying(48)"
      },
      "nick": {
        "name": "nick",
        "number": 10,
        "type": "string",
        "required": false,
        "generated": false,
        "editable": false,
        "maxLength": 24,
        "sqlType": "character varying(24)"
      },
      "admin": {
        "name": "admin",
        "number": 11,
        "type": "boolean",
        "required": false,
        "generated": false,
        "editable": false,
        "sqlType": "boolean"
      },
      "leader": {
        "name": "leader",
        "number": 12,
        "type": "boolean",
        "required": false,
        "generated": false,
        "editable": false,
        "sqlType": "boolean"
      },
      "avatar": {
        "name": "avatar",
        "number": 13,
        "type": "string",
        "required": false,
        "generated": false,
        "editable": false,
        "maxLength": 192,
        "sqlType": "character varying(192)"
      },
      "parent": {
        "name": "parent",
        "number": 14,
        "type": "integer",
        "required": false,
        "generated": false,
        "editable": false,
        "precision": 32,
        "sqlType": "integer"
      },
      "mlbot": {
        "name": "mlbot",
        "number": 15,
        "type": "boolean",
        "required": false,
        "generated": false,
        "editable": false,
        "sqlType": "boolean"
      },
      "user": {
        "name": "user",
        "number": 16,
        "type": "object",
        "required": false,
        "generated": false,
        "editable": false,
        "sqlType": "json"
      }
    }
  },
  "top_referrals": {
    "id": "top_referrals",
    "type": "view",
    "fields": {
      "nick": {
        "name": "nick",
        "number": 1,
        "type": "string",
        "required": false,
        "generated": false,
        "editable": false,
        "sqlType": "text"
      },
      "count": {
        "name": "count",
        "number": 2,
        "type": "integer",
        "required": false,
        "generated": false,
        "editable": false,
        "precision": 64,
        "sqlType": "bigint"
      }
    }
  },
  "transfer": {
    "id": "transfer",
    "type": "table",
    "fields": {
      "id": {
        "name": "id",
        "number": 1,
        "type": "integer",
        "required": true,
        "generated": true,
        "editable": true,
        "precision": 32,
        "sqlType": "integer"
      },
      "from": {
        "name": "from",
        "number": 2,
        "type": "integer",
        "required": false,
        "generated": false,
        "editable": true,
        "precision": 32,
        "sqlType": "integer",
        "reference": {
          "name": "transfer_from_fkey",
          "table": "user",
          "field": "id",
          "rules": {
            "update": "CASCADE",
            "delete": "CASCADE"
          }
        }
      },
      "to": {
        "name": "to",
        "number": 3,
        "type": "integer",
        "required": false,
        "generated": false,
        "editable": true,
        "precision": 32,
        "sqlType": "integer",
        "reference": {
          "name": "transfer_to_fkey",
          "table": "user",
          "field": "id",
          "rules": {
            "update": "CASCADE",
            "delete": "CASCADE"
          }
        }
      },
      "amount": {
        "name": "amount",
        "number": 4,
        "type": "integer",
        "required": true,
        "generated": false,
        "editable": true,
        "precision": 32,
        "sqlType": "integer"
      },
      "type": {
        "name": "type",
        "number": 5,
        "type": "enum",
        "required": true,
        "generated": false,
        "editable": true,
        "items": [
          "internal",
          "payment",
          "withdraw",
          "accrue",
          "buy",
          "earn",
          "support",
          "write-off",
          "need-pro"
        ],
        "sqlType": "transfer_type"
      },
      "status": {
        "name": "status",
        "number": 6,
        "type": "enum",
        "required": true,
        "generated": false,
        "editable": true,
        "items": [
          "created",
          "success",
          "fail",
          "canceled",
          "pending",
          "need-pro"
        ],
        "sqlType": "transfer_status"
      },
      "wallet": {
        "name": "wallet",
        "number": 7,
        "type": "string",
        "required": false,
        "generated": false,
        "editable": true,
        "maxLength": 64,
        "sqlType": "character varying(64)"
      },
      "txid": {
        "name": "txid",
        "number": 8,
        "type": "string",
        "required": false,
        "generated": false,
        "editable": true,
        "maxLength": 64,
        "sqlType": "character varying(64)"
      },
      "ip": {
        "name": "ip",
        "number": 9,
        "type": "inet",
        "required": false,
        "generated": false,
        "editable": true,
        "sqlType": "inet"
      },
      "created": {
        "name": "created",
        "number": 10,
        "type": "time",
        "required": true,
        "generated": true,
        "editable": true,
        "sqlType": "timestamp without time zone"
      },
      "time": {
        "name": "time",
        "number": 11,
        "type": "time",
        "required": false,
        "generated": false,
        "editable": true,
        "sqlType": "timestamp without time zone"
      }
    },
    "references": {
      "cart_transfer_fkey": {
        "name": "cart_transfer_fkey",
        "table": "cart",
        "field": "transfer"
      }
    }
  },
  "transfer_user": {
    "id": "transfer_user",
    "type": "view",
    "fields": {
      "id": {
        "name": "id",
        "number": 1,
        "type": "integer",
        "required": false,
        "generated": false,
        "editable": false,
        "precision": 32,
        "sqlType": "integer"
      },
      "amount": {
        "name": "amount",
        "number": 2,
        "type": "integer",
        "required": false,
        "generated": false,
        "editable": false,
        "precision": 32,
        "sqlType": "integer"
      },
      "type": {
        "name": "type",
        "number": 3,
        "type": "enum",
        "required": false,
        "generated": false,
        "editable": false,
        "items": [
          "internal",
          "payment",
          "withdraw",
          "accrue",
          "buy",
          "earn",
          "support",
          "write-off",
          "need-pro"
        ],
        "sqlType": "transfer_type"
      },
      "status": {
        "name": "status",
        "number": 4,
        "type": "enum",
        "required": false,
        "generated": false,
        "editable": false,
        "items": [
          "created",
          "success",
          "fail",
          "canceled",
          "pending",
          "need-pro"
        ],
        "sqlType": "transfer_status"
      },
      "wallet": {
        "name": "wallet",
        "number": 5,
        "type": "string",
        "required": false,
        "generated": false,
        "editable": false,
        "maxLength": 64,
        "sqlType": "character varying(64)"
      },
      "ip": {
        "name": "ip",
        "number": 6,
        "type": "inet",
        "required": false,
        "generated": false,
        "editable": false,
        "sqlType": "inet"
      },
      "created": {
        "name": "created",
        "number": 7,
        "type": "time",
        "required": false,
        "generated": false,
        "editable": false,
        "sqlType": "timestamp without time zone"
      },
      "time": {
        "name": "time",
        "number": 8,
        "type": "time",
        "required": false,
        "generated": false,
        "editable": false,
        "sqlType": "timestamp without time zone"
      },
      "from": {
        "name": "from",
        "number": 9,
        "type": "integer",
        "required": false,
        "generated": false,
        "editable": false,
        "precision": 32,
        "sqlType": "integer"
      },
      "from_nick": {
        "name": "from_nick",
        "number": 10,
        "type": "string",
        "required": false,
        "generated": false,
        "editable": false,
        "maxLength": 24,
        "sqlType": "character varying(24)"
      },
      "to": {
        "name": "to",
        "number": 11,
        "type": "integer",
        "required": false,
        "generated": false,
        "editable": false,
        "precision": 32,
        "sqlType": "integer"
      },
      "to_nick": {
        "name": "to_nick",
        "number": 12,
        "type": "string",
        "required": false,
        "generated": false,
        "editable": false,
        "maxLength": 24,
        "sqlType": "character varying(24)"
      }
    }
  },
  "user": {
    "id": "user",
    "type": "table",
    "fields": {
      "id": {
        "name": "id",
        "number": 1,
        "type": "integer",
        "required": true,
        "generated": true,
        "editable": true,
        "precision": 32,
        "sqlType": "integer"
      },
      "nick": {
        "name": "nick",
        "number": 2,
        "type": "string",
        "required": true,
        "generated": false,
        "editable": true,
        "maxLength": 24,
        "sqlType": "character varying(24)"
      },
      "email": {
        "name": "email",
        "number": 3,
        "type": "string",
        "required": true,
        "generated": false,
        "editable": true,
        "maxLength": 48,
        "sqlType": "character varying(48)"
      },
      "admin": {
        "name": "admin",
        "number": 4,
        "type": "boolean",
        "required": true,
        "generated": true,
        "editable": true,
        "sqlType": "boolean"
      },
      "leader": {
        "name": "leader",
        "number": 5,
        "type": "boolean",
        "required": true,
        "generated": true,
        "editable": true,
        "sqlType": "boolean"
      },
      "skype": {
        "name": "skype",
        "number": 6,
        "type": "string",
        "required": false,
        "generated": false,
        "editable": true,
        "maxLength": 54,
        "sqlType": "character varying(54)"
      },
      "avatar": {
        "name": "avatar",
        "number": 7,
        "type": "string",
        "required": false,
        "generated": false,
        "editable": true,
        "maxLength": 192,
        "sqlType": "character varying(192)"
      },
      "created": {
        "name": "created",
        "number": 8,
        "type": "time",
        "required": true,
        "generated": true,
        "editable": true,
        "sqlType": "timestamp without time zone"
      },
      "surname": {
        "name": "surname",
        "number": 9,
        "type": "string",
        "required": false,
        "generated": false,
        "editable": true,
        "maxLength": 48,
        "sqlType": "character varying(48)"
      },
      "forename": {
        "name": "forename",
        "number": 10,
        "type": "string",
        "required": false,
        "generated": false,
        "editable": true,
        "maxLength": 48,
        "sqlType": "character varying(48)"
      },
      "type": {
        "name": "type",
        "number": 11,
        "type": "enum",
        "required": true,
        "generated": false,
        "editable": true,
        "items": [
          "new",
          "native",
          "leader"
        ],
        "sqlType": "user_type"
      },
      "blockio": {
        "name": "blockio",
        "number": 12,
        "type": "string",
        "required": false,
        "generated": false,
        "editable": true,
        "maxLength": 64,
        "sqlType": "character varying(64)"
      },
      "gavatar": {
        "name": "gavatar",
        "number": 13,
        "type": "integer",
        "required": false,
        "generated": false,
        "editable": true,
        "precision": 32,
        "sqlType": "integer"
      },
      "vkontakte": {
        "name": "vkontakte",
        "number": 14,
        "type": "integer",
        "required": false,
        "generated": false,
        "editable": true,
        "precision": 32,
        "sqlType": "integer"
      },
      "facebook": {
        "name": "facebook",
        "number": 15,
        "type": "string",
        "required": false,
        "generated": false,
        "editable": true,
        "maxLength": 24,
        "sqlType": "character varying(24)"
      },
      "google": {
        "name": "google",
        "number": 16,
        "type": "string",
        "required": false,
        "generated": false,
        "editable": true,
        "maxLength": 24,
        "sqlType": "character varying(24)"
      },
      "mlbot": {
        "name": "mlbot",
        "number": 17,
        "type": "time",
        "required": false,
        "generated": false,
        "editable": true,
        "sqlType": "timestamp without time zone"
      },
      "secret": {
        "name": "secret",
        "number": 18,
        "type": "string",
        "required": false,
        "generated": false,
        "editable": true,
        "maxLength": 60,
        "sqlType": "character(60)"
      },
      "time": {
        "name": "time",
        "number": 19,
        "type": "time",
        "required": false,
        "generated": false,
        "editable": true,
        "sqlType": "timestamp without time zone"
      },
      "parent": {
        "name": "parent",
        "number": 20,
        "type": "integer",
        "required": false,
        "generated": false,
        "editable": true,
        "precision": 32,
        "sqlType": "integer",
        "reference": {
          "name": "user_parent_fkey",
          "table": "user",
          "field": "id",
          "rules": {
            "update": "NO ACTION",
            "delete": "NO ACTION"
          }
        }
      },
      "hard": {
        "name": "hard",
        "number": 21,
        "type": "object",
        "required": false,
        "generated": false,
        "editable": true,
        "sqlType": "json"
      },
      "soft": {
        "name": "soft",
        "number": 22,
        "type": "object",
        "required": false,
        "generated": false,
        "editable": true,
        "sqlType": "json"
      },
      "perfect": {
        "name": "perfect",
        "number": 23,
        "type": "string",
        "required": false,
        "generated": false,
        "editable": true,
        "maxLength": 10,
        "sqlType": "character varying(10)"
      }
    },
    "references": {
      "user_parent_fkey": {
        "name": "user_parent_fkey",
        "table": "user",
        "field": "parent"
      },
      "token_user_fkey": {
        "name": "token_user_fkey",
        "table": "token",
        "field": "user"
      },
      "log_user_fkey": {
        "name": "log_user_fkey",
        "table": "log",
        "field": "user"
      },
      "article_user_fkey": {
        "name": "article_user_fkey",
        "table": "article",
        "field": "user"
      },
      "message_user_fkey": {
        "name": "message_user_fkey",
        "table": "message",
        "field": "user"
      },
      "file_user_fkey": {
        "name": "file_user_fkey",
        "table": "file",
        "field": "user"
      },
      "transfer_from_fkey": {
        "name": "transfer_from_fkey",
        "table": "transfer",
        "field": "from"
      },
      "transfer_to_fkey": {
        "name": "transfer_to_fkey",
        "table": "transfer",
        "field": "to"
      },
      "cart_user_fkey": {
        "name": "cart_user_fkey",
        "table": "cart",
        "field": "user"
      },
      "node_user_fkey": {
        "name": "node_user_fkey",
        "table": "node",
        "field": "user"
      },
      "skype_owner_fkey": {
        "name": "skype_owner_fkey",
        "table": "skype",
        "field": "owner"
      }
    }
  },
  "user_about": {
    "id": "user_about",
    "type": "view",
    "fields": {
      "id": {
        "name": "id",
        "number": 1,
        "type": "integer",
        "required": false,
        "generated": false,
        "editable": true,
        "precision": 32,
        "sqlType": "integer"
      },
      "type": {
        "name": "type",
        "number": 2,
        "type": "enum",
        "required": false,
        "generated": false,
        "editable": true,
        "items": [
          "new",
          "native",
          "leader"
        ],
        "sqlType": "user_type"
      },
      "nick": {
        "name": "nick",
        "number": 3,
        "type": "string",
        "required": false,
        "generated": false,
        "editable": true,
        "maxLength": 24,
        "sqlType": "character varying(24)"
      },
      "forename": {
        "name": "forename",
        "number": 4,
        "type": "string",
        "required": false,
        "generated": false,
        "editable": true,
        "maxLength": 48,
        "sqlType": "character varying(48)"
      },
      "surname": {
        "name": "surname",
        "number": 5,
        "type": "string",
        "required": false,
        "generated": false,
        "editable": true,
        "maxLength": 48,
        "sqlType": "character varying(48)"
      },
      "admin": {
        "name": "admin",
        "number": 6,
        "type": "boolean",
        "required": false,
        "generated": false,
        "editable": true,
        "sqlType": "boolean"
      },
      "leader": {
        "name": "leader",
        "number": 7,
        "type": "boolean",
        "required": false,
        "generated": false,
        "editable": true,
        "sqlType": "boolean"
      },
      "skype": {
        "name": "skype",
        "number": 8,
        "type": "string",
        "required": false,
        "generated": false,
        "editable": true,
        "maxLength": 54,
        "sqlType": "character varying(54)"
      }
    }
  },
  "user_info": {
    "id": "user_info",
    "type": "view",
    "fields": {
      "id": {
        "name": "id",
        "number": 1,
        "type": "integer",
        "required": false,
        "generated": false,
        "editable": false,
        "precision": 32,
        "sqlType": "integer"
      },
      "nick": {
        "name": "nick",
        "number": 2,
        "type": "string",
        "required": false,
        "generated": false,
        "editable": false,
        "maxLength": 24,
        "sqlType": "character varying(24)"
      },
      "forename": {
        "name": "forename",
        "number": 3,
        "type": "string",
        "required": false,
        "generated": false,
        "editable": false,
        "maxLength": 48,
        "sqlType": "character varying(48)"
      },
      "surname": {
        "name": "surname",
        "number": 4,
        "type": "string",
        "required": false,
        "generated": false,
        "editable": false,
        "maxLength": 48,
        "sqlType": "character varying(48)"
      },
      "skype": {
        "name": "skype",
        "number": 5,
        "type": "string",
        "required": false,
        "generated": false,
        "editable": false,
        "maxLength": 54,
        "sqlType": "character varying(54)"
      },
      "email": {
        "name": "email",
        "number": 6,
        "type": "string",
        "required": false,
        "generated": false,
        "editable": false,
        "maxLength": 48,
        "sqlType": "character varying(48)"
      },
      "admin": {
        "name": "admin",
        "number": 7,
        "type": "boolean",
        "required": false,
        "generated": false,
        "editable": false,
        "sqlType": "boolean"
      },
      "leader": {
        "name": "leader",
        "number": 8,
        "type": "boolean",
        "required": false,
        "generated": false,
        "editable": false,
        "sqlType": "boolean"
      },
      "type": {
        "name": "type",
        "number": 9,
        "type": "enum",
        "required": false,
        "generated": false,
        "editable": false,
        "items": [
          "new",
          "native",
          "leader"
        ],
        "sqlType": "user_type"
      },
      "parent": {
        "name": "parent",
        "number": 10,
        "type": "integer",
        "required": false,
        "generated": false,
        "editable": false,
        "precision": 32,
        "sqlType": "integer"
      },
      "parent_nick": {
        "name": "parent_nick",
        "number": 11,
        "type": "string",
        "required": false,
        "generated": false,
        "editable": false,
        "maxLength": 24,
        "sqlType": "character varying(24)"
      },
      "client": {
        "name": "client",
        "number": 12,
        "type": "integer",
        "required": false,
        "generated": false,
        "editable": false,
        "precision": 64,
        "sqlType": "bigint"
      },
      "children": {
        "name": "children",
        "number": 13,
        "type": "integer",
        "required": false,
        "generated": false,
        "editable": false,
        "precision": 64,
        "sqlType": "bigint"
      }
    }
  },
  "user_log": {
    "id": "user_log",
    "type": "view",
    "fields": {
      "id": {
        "name": "id",
        "number": 1,
        "type": "integer",
        "required": false,
        "generated": false,
        "editable": false,
        "precision": 64,
        "sqlType": "bigint"
      },
      "user": {
        "name": "user",
        "number": 2,
        "type": "integer",
        "required": false,
        "generated": false,
        "editable": false,
        "precision": 32,
        "sqlType": "integer"
      },
      "nick": {
        "name": "nick",
        "number": 3,
        "type": "string",
        "required": false,
        "generated": false,
        "editable": false,
        "maxLength": 24,
        "sqlType": "character varying(24)"
      },
      "entity": {
        "name": "entity",
        "number": 4,
        "type": "string",
        "required": false,
        "generated": false,
        "editable": false,
        "maxLength": 16,
        "sqlType": "character varying(16)"
      },
      "action": {
        "name": "action",
        "number": 5,
        "type": "string",
        "required": false,
        "generated": false,
        "editable": false,
        "maxLength": 32,
        "sqlType": "character varying(32)"
      },
      "ip": {
        "name": "ip",
        "number": 6,
        "type": "inet",
        "required": false,
        "generated": false,
        "editable": false,
        "sqlType": "inet"
      },
      "data": {
        "name": "data",
        "number": 7,
        "type": "object",
        "required": false,
        "generated": false,
        "editable": false,
        "sqlType": "json"
      }
    }
  },
  "visit": {
    "id": "visit",
    "type": "table",
    "fields": {
      "id": {
        "name": "id",
        "number": 1,
        "type": "integer",
        "required": true,
        "generated": true,
        "editable": true,
        "precision": 32,
        "sqlType": "integer"
      },
      "token": {
        "name": "token",
        "number": 2,
        "type": "string",
        "required": false,
        "generated": false,
        "editable": true,
        "maxLength": 240,
        "sqlType": "character varying(240)"
      },
      "url": {
        "name": "url",
        "number": 3,
        "type": "string",
        "required": true,
        "generated": false,
        "editable": true,
        "maxLength": 240,
        "sqlType": "character varying(240)"
      },
      "spend": {
        "name": "spend",
        "number": 4,
        "type": "integer",
        "required": false,
        "generated": false,
        "editable": true,
        "precision": 32,
        "sqlType": "integer"
      },
      "ip": {
        "name": "ip",
        "number": 5,
        "type": "inet",
        "required": false,
        "generated": false,
        "editable": true,
        "sqlType": "inet"
      },
      "agent": {
        "name": "agent",
        "number": 6,
        "type": "string",
        "required": false,
        "generated": false,
        "editable": true,
        "maxLength": 240,
        "sqlType": "character varying(240)"
      },
      "created": {
        "name": "created",
        "number": 7,
        "type": "time",
        "required": false,
        "generated": true,
        "editable": true,
        "sqlType": "timestamp without time zone"
      }
    }
  }
}
